{
    "swagger": "2.0",
    "info": {
        "description": "Candy Store Test Task",
        "title": "Candy Store API",
        "contact": {},
        "version": "1.0"
    },
    "host": "localhost:8080",
    "basePath": "/v1",
    "paths": {
        "/candyStore/topCustomers": {
            "get": {
                "description": "Show calculated candyStore data",
                "consumes": [
                    "application/json"
                ],
                "produces": [
                    "application/json"
                ],
                "tags": [
                    "topCustomers"
                ],
                "summary": "Show result",
                "operationId": "topCustomers",
                "responses": {
                    "200": {
                        "description": "OK",
                        "schema": {
                            "type": "array",
                            "items": {
                                "$ref": "#/definitions/entity.Clients"
                            }
                        }
                    },
                    "500": {
                        "description": "Internal Server Error",
                        "schema": {
                            "$ref": "#/definitions/v1.response"
                        }
                    }
                }
            }
        }
    },
    "definitions": {
        "entity.Clients": {
            "type": "object",
            "properties": {
                "favouriteSnack": {
                    "type": "string"
                },
                "name": {
                    "type": "string"
                },
                "totalSnacks": {
                    "type": "integer"
                }
            }
        },
        "v1.response": {
            "type": "object",
            "properties": {
                "error": {
                    "type": "string",
                    "example": "message"
                }
            }
        }
    }
}